1 10 20
100 200 125
201 210 89
900 1000 174
1 1 1
12 6 20
100 350 144
240 241 22
351 342 126
5689 5673 205
498 234 144
237 324 131
3328 3248 168
23480 23494 145
13890 23284 279
3 3 8
1250 1250 27
242 267 123
244 257 123
249 700 145
350 400 126
40 1 112
439 232 144
249 567 144
183 184 94
240 232 128
294 203 128
383 435 134
1393 2930 217
239 249 110
569 485 142
759 790 153
7890 5739 262
23839 23940 251
23849 28404 308
74940 74859 232
739 374 171
3839 3839 114
1 500 144
2 500 144
39 45 110
77 127 119
483 474 54
4239 4850 215
8327 8362 234
4849 4730 197
23 23 16
3840 3840 26
75 380 144
590 339 142
220 593 144
3940 3950 189
92049 92384 284
3294 3930 238
7595 6357 257
3839 3829 176
1 9 20
7 1 17
8 3 17
8440 8493 203
90482 90384 240
829 849 135
9463 8504 260
8 8 4
8394 8392 128
490 759 171
8340 8357 234
89 85 31
1000 1 179
846 849 60
738 745 96
903 907 117
543 567 137
1001 1100 169
569 547 137
8392 8404 128
9283 9345 185
87 99 119
92 129 122
120 392 144
948 292 179
847 1000 179
777 839 135
900 600 179
62 12 113
45 90 116
34 78 116
1972 1968 51
2000 2003 144
35 126 119
7601 7601 32
12 92 116
432 281 144
337 400 126
741 729 140
989 521 179
89 221 125
661 381 145
7000 7002 32
7 8 17
23 45 112
54 54 113
